Back Testing and Hyperparameter Tuning • finnts
…
#> • Run Name: get_prepped_models-20241025T005601Z
#> 
#> ℹ Prepping Data
#> ✔ Prepping Data [959ms]
#> 
#> ℹ Creating Model Workflows
#> ✔ Creating Model Workflows [104ms]
#> 
#> ℹ Creating Model Hyperparameters
#> ✔ Creating Model Hyperparameters [148ms]
#> 
#> ℹ Creating Train Test Splits
#> ✔ Creating Train Test Splits [361ms]
#> 
#> # A tibble: 31 × 4
#>    Run_Type        Train_Test_ID Train_End  Test_End  
#>    <chr>                   <dbl> <date>     <date>    
#>  1 Future_Forecast             1 2015-06-01 2015-12-01
#>  2 Back_Test                   2 2015-05-01 2015-06-01
#>  3 Back_Test                   3 2015-04-01 2015-06-01
#>  4 Back_Test                   4 2015-03-01 2015-06-01
#>  5 Back_Test                   5 2015-02-01 2015-06-01
#>  6 Back_Test                   6 2015-01-01 2015-06-01
#>  7 Back_Test                   7 2014-12-01 2015-06-01
#>  8 Back_Test                   8 2014-11-01 2015-05-01
#>  9 Back_Test                   9 2014-10-01 2015-04-01
#> 10 Validation                 10 2014-09-01 2014-10-01
#> # ℹ 21 more rows
…
