Feature Engineering • finnts
…
Date Features

The tk_augment_timeseries_signature function from the timetk package easily extracts out various date features from the timestamp. The function doesn’t differentiate between date type, so features need to be removed depending on the date type. For example, features related to week and day for a monthly forecast are automatically removed.

Fourier series are also added using the tk_augment_fourier function from timetk.

library(dplyr)
library(timetk)

m4_monthly %>%
  timetk::tk_augment_timeseries_signature(date) %>%
  dplyr::group_by(id) %>%
  timetk::tk_augment_fourier(date, .periods = c(3, 6, 12), .K = 1) %>%
  dplyr::ungroup()
#> # A tibble: 1,574 × 37
#>    id    date       value index.num    diff  year year.iso  half quarter month
#>    <fct> <date>     <dbl>     <dbl>   <dbl> <int>    <int> <int>   <int> <int>
#>  1 M1    1976-06-01  8000 202435200      NA  1976     1976     1       2     6
#>  2 M1    1976-07-01  8350 205027200 2592000  1976     1976     2       3     7
#>  3 M1    1976-08-01  8570 207705600 2678400  1976     1976     2       3     8
#>  4 M1    1976-09-01  7700 210384000 2678400  1976     1976     2       3     9
#>  5 M1    1976-10-01  7080 212976000 2592000  1976     1976     2       4    10
#>  6 M1    1976-11-01  6520 215654400 2678400  1976     1976     2       4    11
#>  7 M1    1976-12-01  6070 218246400 2592000  1976     1976     2       4    12
#>  8 M1    1977-01-01  6650 220924800 2678400  1977     1976     1       1     1
#>  9 M1    1977-02-01  6830 223603200 2678400  1977     1977     1       1     2
#> 10 M1    1977-03-01  5710 226022400 2419200  1977     1977     1       1     3
#> # … with 1,564 more rows, and 27 more variables: month.xts <int>,
#> #   month.lbl <ord>, day <int>, hour <int>, minute <int>, second <int>,
#> #   hour12 <int>, am.pm <int>, wday <int>, wday.xts <int>, wday.lbl <ord>,
#> #   mday <int>, qday <int>, yday <int>, mweek <int>, week <int>,
#> #   week.iso <int>, week2 <int>, week3 <int>, week4 <int>, mday7 <int>,
#> #   date_sin3_K1 <dbl>, date_cos3_K1 <dbl>, date_sin6_K1 <dbl>,
#> #   date_cos6_K1 <dbl>, date_sin12_K1 <dbl>, date_cos12_K1 <dbl>
…
