Quick Start Guide • finnts
…
A good example to use when producing your first Finn forecast is to
leverage existing data examples from the timetk package.
Let’s take a monthly example and trim it down to speed up the run time
of your first Finn forecast.

library(finnts)

hist_data <- timetk::m4_monthly %>%
  dplyr::filter(date >= "2013-01-01") %>%
  dplyr::rename(Date = date) %>%
  dplyr::mutate(id = as.character(id))

print(hist_data)
#> # A tibble: 120 × 3
#>    id    Date       value
#>    <chr> <date>     <dbl>
#>  1 M1    2013-01-01  9120
#>  2 M1    2013-02-01  8280
#>  3 M1    2013-03-01  7860
#>  4 M1    2013-04-01  7150
#>  5 M1    2013-05-01  8110
#>  6 M1    2013-06-01 10860
#>  7 M1    2013-07-01 10730
#>  8 M1    2013-08-01  9610
#>  9 M1    2013-09-01  8270
#> 10 M1    2013-10-01  9200
#> # ℹ 110 more rows
…
