Using Individual finnts Forecast Components • finnts
…
Clean and prepare our data before training models. We can even pull out our prepped data to see the features and transformations applied before models are trained.

prep_data(run_info = run_info, 
          input_data = hist_data, 
          combo_variables = c("id"), 
          target_variable = "value", 
          date_type = "month", 
          forecast_horizon = 6)

R1_prepped_data_tbl <- get_prepped_data(run_info = run_info, 
                                        recipe = "R1")

print(R1_prepped_data_tbl)
#> # A tibble: 36 × 66
#>    Date       Combo id      Target Date_index.num Date_diff Date_year Date_half
#>    <date>     <chr> <chr>    <dbl>          <dbl>     <dbl>     <dbl>     <dbl>
#>  1 2013-01-01 M2    M2     722366.     1356998400         0      2013         1
#>  2 2013-02-01 M2    M2     722366.     1359676800   2678400      2013         1
#>  3 2013-03-01 M2    M2    -285828.     1362096000   2419200      2013         1
#>  4 2013-04-01 M2    M2     -28033.     1364774400   2678400      2013         1
#>  5 2013-05-01 M2    M2     141165.     1367366400   2592000      2013         1
#>  6 2013-06-01 M2    M2     319357.     1370044800   2678400      2013         1
#>  7 2013-07-01 M2    M2     393011.     1372636800   2592000      2013         2
#>  8 2013-08-01 M2    M2    -740801.     1375315200   2678400      2013         2
#>  9 2013-09-01 M2    M2    -704178.     1377993600   2678400      2013         2
#> 10 2013-10-01 M2    M2     425346.     1380585600   2592000      2013         2
#> # ℹ 26 more rows
#> # ℹ 58 more variables: Date_quarter <dbl>, Date_month <dbl>,
#> #   Date_month.lbl <chr>, Target_lag6 <dbl>, Target_lag9 <dbl>,
#> #   Target_lag12 <dbl>, Target_lag6_roll3_Avg <dbl>,
#> #   Target_lag9_roll3_Avg <dbl>, Target_lag12_roll3_Avg <dbl>,
#> #   Target_lag6_roll6_Avg <dbl>, Target_lag9_roll6_Avg <dbl>,
#> #   Target_lag12_roll6_Avg <dbl>, Target_lag6_roll9_Avg <dbl>, …

R2_prepped_data_tbl <- get_prepped_data(run_info = run_info, 
                                        recipe = "R2")

print(R2_prepped_data_tbl)
#> # A tibble: 216 × 133
#>    Date       Combo id      Target Date_index.num Date_diff Date_year Date_half
#>    <date>     <chr> <chr>    <dbl>          <dbl>     <dbl>     <dbl>     <dbl>
#>  1 2013-01-01 M2    M2     722366.     1356998400         0      2013         1
#>  2 2013-02-01 M2    M2     722366.     1359676800   2678400      2013         1
#>  3 2013-03-01 M2    M2    -285828.     1362096000   2419200      2013         1
#>  4 2013-04-01 M2    M2     -28033.     1364774400   2678400      2013         1
#>  5 2013-05-01 M2    M2     141165.     1367366400   2592000      2013         1
#>  6 2013-06-01 M2    M2     319357.     1370044800   2678400      2013         1
#>  7 2013-07-01 M2    M2     393011.     1372636800   2592000      2013         2
#>  8 2013-08-01 M2    M2    -740801.     1375315200   2678400      2013         2
#>  9 2013-09-01 M2    M2    -704178.     1377993600   2678400      2013         2
#> 10 2013-10-01 M2    M2     425346.     1380585600   2592000      2013         2
#> # ℹ 206 more rows
#> # ℹ 125 more variables: Date_quarter <dbl>, Date_month <dbl>,
#> #   Date_month.lbl <chr>, Horizon <dbl>, Origin <dbl>, Target_lag1 <dbl>,
#> #   Target_lag2 <dbl>, Target_lag3 <dbl>, Target_lag4 <dbl>, Target_lag5 <dbl>,
#> #   Target_lag6 <dbl>, Target_lag9 <dbl>, Target_lag12 <dbl>,
#> #   Target_lag1_roll3_Avg <dbl>, Target_lag2_roll3_Avg <dbl>,
#> #   Target_lag3_roll3_Avg <dbl>, Target_lag4_roll3_Avg <dbl>, …
…
Final Models

The last step is to create the final simple model averages and select the best models.

final_models(run_info = run_info)

Get Forecast Results

Finally we can now retrieve the forecast results from this Finn run.

finn_output_tbl <- get_forecast_data(run_info = run_info)

print(finn_output_tbl)
#> # A tibble: 247 × 17
#>    Combo id    Model_ID   Model_Name Model_Type Recipe_ID Run_Type Train_Test_ID
#>    <chr> <chr> <chr>      <chr>      <chr>      <chr>     <chr>            <dbl>
#>  1 M2    M2    arima--lo… NA         local      simple_a… Future_…             1
#>  2 M2    M2    arima--lo… NA         local      simple_a… Future_…             1
#>  3 M2    M2    arima--lo… NA         local      simple_a… Future_…             1
#>  4 M2    M2    arima--lo… NA         local      simple_a… Future_…             1
#>  5 M2    M2    arima--lo… NA         local      simple_a… Future_…             1
#>  6 M2    M2    arima--lo… NA         local      simple_a… Future_…             1
#>  7 M2    M2    arima--lo… NA         local      simple_a… Back_Te…             3
#>  8 M2    M2    arima--lo… NA         local      simple_a… Back_Te…             3
#>  9 M2    M2    arima--lo… NA         local      simple_a… Back_Te…             4
#> 10 M2    M2    arima--lo… NA         local      simple_a… Back_Te…             4
#> # ℹ 237 more rows
#> # ℹ 9 more variables: Best_Model <chr>, Horizon <dbl>, Date <date>,
#> #   Target <dbl>, Forecast <dbl>, lo_95 <dbl>, lo_80 <dbl>, hi_80 <dbl>,
#> #   hi_95 <dbl>
…
